Example Analysis – Jack Zhu
…
Data Visualization

##Generating a Frequency Table for the # of Numbat Spottings at Specific Hours of Day

numbat_freq <- numbats.3 %>%
  count(hour) %>%
  rename(Hour = hour, Frequency = n)

##Printing Frequency Table 
print(numbat_freq)

# A tibble: 21 × 2
    Hour Frequency
   <dbl>     <int>
 1     0         4
 2     1         9
 3     2         4
 4     3         6
 5     4         4
 6     5         5
 7     6         9
 8     7         4
 9     8         1
10     9         2
# ℹ 11 more rows
…
